Name  Type  Score  Type  Score  Type  Score  Type  Score

Brown  H     39     M     83      q     78     F     100
Smith  q     100    H     99      f     54     m     87
Angie  H     90     Q     87      M     94     F     78
Bush   F     100    H     90      q     54     m     87
Alex   H     39     M     53      q     78     F     100
