Jackpot! contribution.awk exists
Jackpot! helloworld.c exists
Jackpot! hw1 exists
hw1 is a directory, here is its content
***************************
date.txt
hw1.pdf
hw1.txt
info.txt
me.txt
users.txt
users.txt.gz
***************************
Jackpot! hw2 exists
hw2 is a directory, here is its content
***************************
a-gFile
h-oFile
include
ladsrc
ladsrc.tar.gz
p-zFile
***************************
File foo doesn’t exist
Jackpot! hw4 exists
hw4 is a directory, here is its content
***************************
grade.awk
gradeErr.txt
grade.txt
reportErr.txt
report.txt
***************************
Jackpot! hw5 exists
hw5 is a directory, here is its content
***************************
failing_erik.sh
grade.awk
report.txt
***************************
Jackpot! README.md exists
File report.txt doesn’t exist
Jackpot! hw3 exists
hw3 is a directory, here is its content
***************************
databook.txt
Failing_Erik.out
Failing_Erik.pdf
grep.sh
input.txt
sed.sh
***************************
DONE
